<?xml version="1.0" encoding="UTF-8" standalone="no"?>
<svg
   width="50mm"
   height="50mm"
   clip-rule="evenodd"
   fill-rule="evenodd"
   image-rendering="optimizeQuality"
   shape-rendering="geometricPrecision"
   text-rendering="geometricPrecision"
   version="1.1"
   viewBox="0 0 50 50"
   id="svg24"
   sodipodi:docname="bK.svg"
   inkscape:version="1.2.2 (b0a8486541, 2022-12-01)"
   xmlns:inkscape="http://www.inkscape.org/namespaces/inkscape"
   xmlns:sodipodi="http://sodipodi.sourceforge.net/DTD/sodipodi-0.dtd"
   xmlns="http://www.w3.org/2000/svg"
   xmlns:svg="http://www.w3.org/2000/svg"
   xmlns:rdf="http://www.w3.org/1999/02/22-rdf-syntax-ns#"
   xmlns:cc="http://creativecommons.org/ns#"
   xmlns:dc="http://purl.org/dc/elements/1.1/">
  <metadata
     id="metadata30">
    <rdf:RDF>
      <cc:Work
         rdf:about="">
        <dc:format>image/svg+xml</dc:format>
        <dc:type
           rdf:resource="http://purl.org/dc/dcmitype/StillImage" />
      </cc:Work>
    </rdf:RDF>
  </metadata>
  <defs
     id="defs28" />
  <sodipodi:namedview
     pagecolor="#ffffff"
     bordercolor="#666666"
     borderopacity="1"
     objecttolerance="10"
     gridtolerance="10"
     guidetolerance="10"
     inkscape:pageopacity="0"
     inkscape:pageshadow="2"
     inkscape:window-width="1239"
     inkscape:window-height="1011"
     id="namedview26"
     showgrid="false"
     inkscape:zoom="3.5322341"
     inkscape:cx="120.60356"
     inkscape:cy="96.681021"
     inkscape:window-x="788"
     inkscape:window-y="270"
     inkscape:window-maximized="0"
     inkscape:current-layer="svg24"
     inkscape:showpageshadow="2"
     inkscape:pagecheckerboard="0"
     inkscape:deskcolor="#d1d1d1"
     inkscape:document-units="mm" />
  <path
     d="m27.67 15.225v-3.5436h4.4396v-4.4293h-4.9344v-3.8933h-4.366v3.8933h-4.9344v4.4293h4.4396v3.5436"
     style="clip-rule:evenodd;fill-rule:evenodd;fill:#2d87e9;image-rendering:optimizeQuality;shape-rendering:geometricPrecision;stroke-linecap:round;stroke-width:1.2;stroke:#1e1e1e;fill-opacity:1"
     id="path2" />
  <rect
     x="20.299"
     y="14.215"
     width="9.3984"
     height="2.7873"
     ry="1.3937"
     style="fill:#2d87e9;paint-order:normal;stroke-linejoin:round;stroke-width:1.2;stroke:#1e1e1e;fill-opacity:1"
     id="rect4" />
  <path
     d="m26.416 14.215c0.72479 0 1.3082 0.62142 1.3082 1.3935 0 0.77209-0.58336 1.3935-1.3082 1.3935h1.9736c0.72478 0 1.3081-0.62144 1.3081-1.3935 0-0.77209-0.58336-1.3935-1.3081-1.3935z"
     style="fill:#000000;opacity:.18;paint-order:normal"
     id="path6" />
  <path
     d="m21.631 14.842c-0.40169 0-0.72499 0.34468-0.72499 0.77259 0 0.42787 0.3233 0.77227 0.72499 0.77227h0.87379c-0.40169 0-0.72499-0.3444-0.72499-0.77227 0-0.42791 0.3233-0.77259 0.72499-0.77259z"
     style="fill:#ffffff;opacity:.25;paint-order:normal"
     id="path8" />
  <path
     d="m33.635 36.986s7.776-13.318 6.6127-15.916c-1.1632-2.5964-8.4802-4.4974-15.248-4.4974-6.7677 0-14.084 1.9004-15.248 4.4974-1.1632 2.5966 6.6127 15.916 6.6127 15.916z"
     style="clip-rule:evenodd;fill-rule:evenodd;fill:#2d87e9;image-rendering:optimizeQuality;shape-rendering:geometricPrecision;stroke-linecap:round;stroke-width:1.2;stroke:#1e1e1e;fill-opacity:1"
     id="path10" />
  <path
     d="m24.996 16.576c15.938 2.6216 12.573 9.3539 6.6406 22.543l2.0273-1.7288s7.7472-13.723 6.5839-16.32c-1.5452-2.8334-7.5027-4.1592-15.252-4.4945z"
     style="clip-rule:evenodd;fill-rule:evenodd;image-rendering:optimizeQuality;opacity:.18;shape-rendering:geometricPrecision"
     id="path12" />
  <path
     d="m23.765 17.295c-3.904-0.18436-14.621 1.8014-13.503 5.0167 0.81724 3.7274 2.7544 7.244 4.5085 10.504-5.6872-10.335-5.9421-13.774 8.9943-15.521z"
     style="clip-rule:evenodd;fill-rule:evenodd;fill:#ffffff;image-rendering:optimizeQuality;opacity:.25;shape-rendering:geometricPrecision"
     id="path14" />
  <path
     d="m23.391 3.997-0.01613 3.3123h0.54565l0.01622-3.3123zm-4.9311 3.8699-0.0075 3.2077h0.77316l0.0075-3.2077zm4.4128 3.213 0.02573 2.4859h0.52l-0.02573-2.4859z"
     style="clip-rule:evenodd;fill-rule:evenodd;fill:#ffffff;image-rendering:optimizeQuality;opacity:.25;shape-rendering:geometricPrecision"
     id="path16" />
  <path
     d="m26.189 3.3582-1.9e-5 3.8935h0.98678l2.8e-5 -3.8935zm4.441 3.8937v4.9453h1.4802v-4.9453zm-4.4396 4.4291 2.7e-5 2.4923h1.4802l-2.8e-5 -2.4923z"
     style="clip-rule:evenodd;fill-rule:evenodd;fill:#000000;image-rendering:optimizeQuality;opacity:.18;shape-rendering:geometricPrecision"
     id="path18" />
  <path
     d="m25 36.457s-9.1309 0.0481-11.691 1.6192c-1.7273 1.0602-2.1348 3.6514-1.8998 6.3237h27.182c0.23495-2.6723-0.17255-5.2636-1.8999-6.3237-2.5597-1.5711-11.691-1.6192-11.691-1.6192z"
     style="clip-rule:evenodd;fill-rule:evenodd;fill:#2d87e9;image-rendering:optimizeQuality;shape-rendering:geometricPrecision;stroke-linejoin:round;stroke-width:1.2;stroke:#1e1e1e;fill-opacity:1"
     id="path20" />
  <path
     d="m25 37.147s-8.7121-0.13732-11.624 1.6658c-0.36985 0.22904-0.69925 0.83943-0.95359 1.3902 0.26077-0.3313 0.50213-0.61301 0.88663-0.84901 2.5598-1.5711 11.691-1.6191 11.691-1.6191s9.1318 0.0479 11.692 1.6191c0.39104 0.24 0.59243 0.53161 0.85561 0.87009 0.0258-0.0759-0.40837-1.1578-1.1438-1.5962-2.7554-1.492-11.403-1.4808-11.403-1.4808z"
     style="clip-rule:evenodd;fill-rule:evenodd;fill:#ffffff;image-rendering:optimizeQuality;opacity:.25;shape-rendering:geometricPrecision"
     id="path22" />
</svg>
